[
    {
        "symbol": "ABBV",
        "name": "AbbVie Inc. Common Stock",
        "country": "United States",
        "industry": "Other Pharmaceuticals"
    },
    {
        "symbol": "ABC",
        "name": "AmerisourceBergen Corporation Common Stock",
        "country": "United States",
        "industry": "Other Pharmaceuticals"
    },
    {
        "symbol": "ABEO",
        "name": "Abeona Therapeutics Inc. Common Stock",
        "country": "United States",
        "industry": "Biotechnology: Pharmaceutical Preparations"
    },
    {
        "symbol": "ABOS",
        "name": "Acumen Pharmaceuticals Inc. Common Stock",
        "country": "United States",
        "industry": "Biotechnology: Pharmaceutical Preparations"
    },
    {
        "symbol": "ABUS",
        "name": "Arbutus Biopharma Corporation Common Stock",
        "country": "Canada",
        "industry": ""
    },
    {
        "symbol": "ABVC",
        "name": "ABVC Biopharma Inc. Common Stock",
        "country": "United States",
        "industry": "Biotechnology: Pharmaceutical Preparations"
    },
    {
        "symbol": "ACAD",
        "name": "ACADIA Pharmaceuticals Inc. Common Stock",
        "country": "United States",
        "industry": "Biotechnology: Pharmaceutical Preparations"
    },
    {
        "symbol": "ACET",
        "name": "Adicet Bio Inc. Common Stock ",
        "country": "United States",
        "industry": "Biotechnology: Pharmaceutical Preparations"
    },
    {
        "symbol": "ACIU",
        "name": "AC Immune SA Common Stock",
        "country": "Switzerland",
        "industry": "Biotechnology: Pharmaceutical Preparations"
    },
    {
        "symbol": "ACRS",
        "name": "Aclaris Therapeutics Inc. Common Stock",
        "country": "United States",
        "industry": "Biotechnology: Pharmaceutical Preparations"
    },
    {
        "symbol": "ADBE",
        "name": "Adobe Inc. Common Stock",
        "country": "United States",
        "industry": "Computer Software: Prepackaged Software"
    },
    {
        "symbol": "ADBE",
        "name": "Adobe Inc. Common Stock",
        "country": "United States",
        "industry": "Computer Software: Prepackaged Software"
    },
    {
        "symbol": "ADSK",
        "name": "Autodesk Inc. Common Stock",
        "country": "United States",
        "industry": "Computer Software: Prepackaged Software"
    },
    {
        "symbol": "AGYS",
        "name": "Agilysys Inc. Common Stock",
        "country": "United States",
        "industry": "Computer Software: Prepackaged Software"
    },
    {
        "symbol": "AI",
        "name": "C3.ai Inc. Class A Common Stock",
        "country": "",
        "industry": "Computer Software: Prepackaged Software"
    },
    {
        "symbol": "ALRM",
        "name": "Alarm.com Holdings Inc. Common Stock",
        "country": "United States",
        "industry": "Computer Software: Prepackaged Software"
    },
    {
        "symbol": "ALTR",
        "name": "Altair Engineering Inc. Class A Common Stock",
        "country": "United States",
        "industry": "Computer Software: Prepackaged Software"
    },
    {
        "symbol": "AMST",
        "name": "Amesite Inc. Common Stock",
        "country": "United States",
        "industry": "Computer Software: Prepackaged Software"
    },
    {
        "symbol": "AMSWA",
        "name": "American Software Inc. Class A Common Stock",
        "country": "United States",
        "industry": "Computer Software: Prepackaged Software"
    },
    {
        "symbol": "AMWL",
        "name": "American Well Corporation Class A Common Stock",
        "country": "United States",
        "industry": "Retail: Computer Software & Peripheral Equipment"
    },
    {
        "symbol": "ABGI",
        "name": "ABG Acquisition Corp. I Class A Ordinary Shares",
        "country": "United States",
        "industry": "Business Services"
    },
    {
        "symbol": "ACBAU",
        "name": "Ace Global Business Acquisition Limited Unit",
        "country": "Hong Kong",
        "industry": "Business Services"
    },
    {
        "symbol": "ADOC",
        "name": "Edoc Acquisition Corp. Class A Ordinary Share",
        "country": "United States",
        "industry": "Business Services"
    },
    {
        "symbol": "AGBA",
        "name": "AGBA Acquisition Limited Ordinary Share",
        "country": "Hong Kong",
        "industry": "Business Services"
    },
    {
        "symbol": "NAACW",
        "name": "North Atlantic Acquisition Corporation Warrant",
        "country": "Malta",
        "industry": "Business Services"
    },
    {
        "symbol": "NGCAW",
        "name": "NextGen Acquisition Corp. II Warrant",
        "country": "United States",
        "industry": "Business Services"
    },
    {
        "symbol": "NTES",
        "name": "NetEase Inc. American Depositary Shares",
        "country": "China",
        "industry": "Business Services"
    },
    {
        "symbol": "TREB",
        "name": "Trebia Acquisition Corp. Class A Ordinary Shares",
        "country": "United States",
        "industry": "Business Services"
    },
    {
        "symbol": "TRONW",
        "name": "Corner Growth Acquisition Corp. 2 Warrants",
        "country": "United States",
        "industry": "Business Services"
    },
    {
        "symbol": "ZG",
        "name": "Zillow Group Inc. Class A Common Stock",
        "country": "United States",
        "industry": "Business Services"
    },
    {
        "symbol": "A",
        "name": "Agilent Technologies Inc. Common Stock",
        "country": "United States",
        "industry": "Electrical Products"
    },
    {
        "symbol": "ABB",
        "name": "ABB Ltd Common Stock",
        "country": "Switzerland",
        "industry": "Electrical Products"
    },
    {
        "symbol": "AEHR",
        "name": "Aehr Test Systems Common Stock",
        "country": "United States",
        "industry": "Electrical Products"
    },
    {
        "symbol": "AMOT",
        "name": "Allied Motion Technologies Inc.",
        "country": "United States",
        "industry": "Electrical Products"
    },
    {
        "symbol": "APH",
        "name": "Amphenol Corporation Common Stock",
        "country": "United States",
        "industry": "Electrical Products"
    },
    {
        "symbol": "ATKR",
        "name": "Atkore Inc. Common Stock",
        "country": "United States",
        "industry": "Electrical Products"
    },
    {
        "symbol": "BHE",
        "name": "Benchmark Electronics Inc. Common Stock",
        "country": "United States",
        "industry": "Electrical Products"
    },
    {
        "symbol": "CBAT",
        "name": "CBAK Energy Technology Inc. Common Stock",
        "country": "China",
        "industry": "Electrical Products"
    },
    {
        "symbol": "ELTK",
        "name": "Eltek Ltd. Ordinary Shares",
        "country": "Israel",
        "industry": "Electrical Products"
    },
    {
        "symbol": "ENPH",
        "name": "Enphase Energy Inc. Common Stock",
        "country": "United States",
        "industry": "Electrical Products"
    },
    {
        "symbol": "AIF",
        "name": "Apollo Tactical Income Fund Inc. Common Stock",
        "country": "",
        "industry": "Finance Companies"
    },
{
        "symbol": "EDD",
        "name": "Morgan Stanley Emerging Markets Domestic Debt Fund Inc. Morgan Stanley Emerging Markets Domestic Debt Fund Inc. Common Stock",
        "country": "United States",
        "industry": "Finance Companies"
    },
{
        "symbol": "ERH",
        "name": "Wells Fargo Utilities and High Income Fund",
        "country": "",
        "industry": "Finance\/Investors Services"
    },
{
        "symbol": "FOA",
        "name": "Finance of America Companies Inc. Class A Common Stock",
        "country": "",
        "industry": "Finance Companies"
    },
{
        "symbol": "GECC",
        "name": "Great Elm Capital Corp. Common Stock",
        "country": "United States",
        "industry": "Finance Companies"
    },
{
        "symbol": "GNT",
        "name": "GAMCO Natural Resources Gold & Income Trust",
        "country": "United States",
        "industry": "Finance\/Investors Services"
    },
{
        "symbol": "GSBD",
        "name": "Goldman Sachs BDC Inc. Common Stock",
        "country": "United States",
        "industry": "Finance: Consumer Services"
    },
{
        "symbol": "HQH",
        "name": "Tekla Healthcare Investors Common Stock",
        "country": "United States",
        "industry": "Finance Companies"
    },
{
        "symbol": "NNI",
        "name": "Nelnet Inc. Common Stock",
        "country": "United States",
        "industry": "Finance: Consumer Services"
    },
{
        "symbol": "SVVC",
        "name": "Firsthand Technology Value Fund Inc. Common Stock",
        "country": "United States",
        "industry": "Finance\/Investors Services"
    },
{
        "symbol": "ABBV",
        "name": "AbbVie Inc. Common Stock",
        "country": "United States",
        "industry": "Other Pharmaceuticals"
    },
    {
        "symbol": "ABC",
        "name": "AmerisourceBergen Corporation Common Stock",
        "country": "United States",
        "industry": "Other Pharmaceuticals"
    },
    {
        "symbol": "ABEO",
        "name": "Abeona Therapeutics Inc. Common Stock",
        "country": "United States",
        "industry": "Biotechnology: Pharmaceutical Preparations"
    },
    {
        "symbol": "ABOS",
        "name": "Acumen Pharmaceuticals Inc. Common Stock",
        "country": "United States",
        "industry": "Biotechnology: Pharmaceutical Preparations"
    },
    {
        "symbol": "ABUS",
        "name": "Arbutus Biopharma Corporation Common Stock",
        "country": "Canada",
        "industry": ""
    },
    {
        "symbol": "ABVC",
        "name": "ABVC Biopharma Inc. Common Stock",
        "country": "United States",
        "industry": "Biotechnology: Pharmaceutical Preparations"
    },
    {
        "symbol": "ACAD",
        "name": "ACADIA Pharmaceuticals Inc. Common Stock",
        "country": "United States",
        "industry": "Biotechnology: Pharmaceutical Preparations"
    },
    {
        "symbol": "ACET",
        "name": "Adicet Bio Inc. Common Stock ",
        "country": "United States",
        "industry": "Biotechnology: Pharmaceutical Preparations"
    },
    {
        "symbol": "ACIU",
        "name": "AC Immune SA Common Stock",
        "country": "Switzerland",
        "industry": "Biotechnology: Pharmaceutical Preparations"
    },
    {
        "symbol": "ACRS",
        "name": "Aclaris Therapeutics Inc. Common Stock",
        "country": "United States",
        "industry": "Biotechnology: Pharmaceutical Preparations"
    },
    {
        "symbol": "ADBE",
        "name": "Adobe Inc. Common Stock",
        "country": "United States",
        "industry": "Computer Software: Prepackaged Software"
    },
    {
        "symbol": "ADBE",
        "name": "Adobe Inc. Common Stock",
        "country": "United States",
        "industry": "Computer Software: Prepackaged Software"
    },
    {
        "symbol": "ADSK",
        "name": "Autodesk Inc. Common Stock",
        "country": "United States",
        "industry": "Computer Software: Prepackaged Software"
    },
    {
        "symbol": "AGYS",
        "name": "Agilysys Inc. Common Stock",
        "country": "United States",
        "industry": "Computer Software: Prepackaged Software"
    },
    {
        "symbol": "AI",
        "name": "C3.ai Inc. Class A Common Stock",
        "country": "",
        "industry": "Computer Software: Prepackaged Software"
    },
    {
        "symbol": "ALRM",
        "name": "Alarm.com Holdings Inc. Common Stock",
        "country": "United States",
        "industry": "Computer Software: Prepackaged Software"
    },
    {
        "symbol": "ALTR",
        "name": "Altair Engineering Inc. Class A Common Stock",
        "country": "United States",
        "industry": "Computer Software: Prepackaged Software"
    },
    {
        "symbol": "AMST",
        "name": "Amesite Inc. Common Stock",
        "country": "United States",
        "industry": "Computer Software: Prepackaged Software"
    },
    {
        "symbol": "AMSWA",
        "name": "American Software Inc. Class A Common Stock",
        "country": "United States",
        "industry": "Computer Software: Prepackaged Software"
    },
    {
        "symbol": "AMWL",
        "name": "American Well Corporation Class A Common Stock",
        "country": "United States",
        "industry": "Retail: Computer Software & Peripheral Equipment"
    }
]